{
    "prepare_queue": {
        "installed": [],
        "uninstalled": []
    },
    "config_munge": {
        "files": {
            "config.xml": {
                "parents": {
                    "/*": [
                        {
                            "xml": "<feature name=\"OneSignalPush\"><param name=\"ios-package\" value=\"OneSignalPush\" /></feature>",
                            "count": 1
                        }
                    ]
                }
            }
        }
    },
    "installed_plugins": {
        "cordova-plugin-whitelist": {
            "PACKAGE_NAME": "ASPTradeOnChart"
        },
        "cordova-plugin-network-information": {
            "PACKAGE_NAME": "ASPTradeOnChart"
        },
        "cordova-plugin-hostedwebapp": {
            "PACKAGE_NAME": "ASPTradeOnChart"
        },
        "cordova-plugin-dialogs": {
            "PACKAGE_NAME": "ASPTradeOnChart"
        },
        "onesignal-cordova-plugin": {
            "PACKAGE_NAME": "ASPTradeOnChart"
        }
    },
    "dependent_plugins": {},
    "modules": [
        {
            "file": "plugins/cordova-plugin-network-information/www/network.js",
            "id": "cordova-plugin-network-information.network",
            "pluginId": "cordova-plugin-network-information",
            "clobbers": [
                "navigator.connection",
                "navigator.network.connection"
            ]
        },
        {
            "file": "plugins/cordova-plugin-network-information/www/Connection.js",
            "id": "cordova-plugin-network-information.Connection",
            "pluginId": "cordova-plugin-network-information",
            "clobbers": [
                "Connection"
            ]
        },
        {
            "file": "plugins/cordova-plugin-network-information/src/windows/NetworkInfoProxy.js",
            "id": "cordova-plugin-network-information.NetworkInfoProxy",
            "pluginId": "cordova-plugin-network-information",
            "runs": true
        },
        {
            "file": "plugins/cordova-plugin-hostedwebapp/www/hostedWebApp.js",
            "id": "cordova-plugin-hostedwebapp.hostedwebapp",
            "pluginId": "cordova-plugin-hostedwebapp",
            "clobbers": [
                "hostedwebapp"
            ]
        },
        {
            "file": "plugins/cordova-plugin-hostedwebapp/src/windows/HostedWebAppPluginProxy.js",
            "id": "cordova-plugin-hostedwebapp.HostedWebAppPluginProxy",
            "pluginId": "cordova-plugin-hostedwebapp",
            "merges": [
                ""
            ]
        },
        {
            "file": "plugins/cordova-plugin-dialogs/www/notification.js",
            "id": "cordova-plugin-dialogs.notification",
            "pluginId": "cordova-plugin-dialogs",
            "merges": [
                "navigator.notification"
            ]
        },
        {
            "file": "plugins/cordova-plugin-dialogs/src/windows/NotificationProxy.js",
            "id": "cordova-plugin-dialogs.NotificationProxy",
            "pluginId": "cordova-plugin-dialogs",
            "merges": [
                ""
            ]
        },
        {
            "file": "plugins/onesignal-cordova-plugin/www/OneSignal.js",
            "id": "onesignal-cordova-plugin.OneSignal",
            "pluginId": "onesignal-cordova-plugin",
            "clobbers": [
                "OneSignal"
            ]
        },
        {
            "file": "plugins/onesignal-cordova-plugin/src/windows/OneSignalPushProxy.js",
            "id": "onesignal-cordova-plugin.OneSignalPushProxy",
            "pluginId": "onesignal-cordova-plugin",
            "merges": [
                ""
            ]
        }
    ],
    "plugin_metadata": {
        "cordova-plugin-whitelist": "1.2.2",
        "cordova-plugin-network-information": "1.2.1",
        "cordova-plugin-hostedwebapp": "0.3.1",
        "cordova-plugin-dialogs": "1.2.1",
        "onesignal-cordova-plugin": "1.13.0"
    }
}