{
    "prepare_queue": {
        "installed": [],
        "uninstalled": []
    },
    "config_munge": {
        "files": {}
    },
    "installed_plugins": {
        "cordova-plugin-hostedwebapp": {
            "PACKAGE_NAME": "th.co.asiaplus.staging"
        },
        "cordova-plugin-whitelist": {
            "PACKAGE_NAME": "th.co.asiaplus.staging"
        },
        "cordova-plugin-dialogs": {
            "PACKAGE_NAME": "th.co.asiaplus.staging"
        },
        "onesignal-cordova-plugin": {
            "PACKAGE_NAME": "th.co.asiaplus.staging"
        }
    },
    "dependent_plugins": {
        "cordova-plugin-network-information": {
            "PACKAGE_NAME": "th.co.asiaplus.staging"
        }
    }
}